%YAML 1.1
%TAG !u! tag:unity3d.com,2011:
--- !u!114 &11400000
MonoBehaviour:
  m_ObjectHideFlags: 0
  m_CorrespondingSourceObject: {fileID: 0}
  m_PrefabInstance: {fileID: 0}
  m_PrefabAsset: {fileID: 0}
  m_GameObject: {fileID: 0}
  m_Enabled: 1
  m_EditorHideFlags: 0
  m_Script: {fileID: 11500000, guid: bbb281ee3bf0b054c82ac2347e9e782c, type: 3}
  m_Name: Bullets
  m_EditorClassIdentifier: 
  m_GroupName: Bullets
  m_Data:
    m_SerializedData: []
  m_GUID: 6230cdcab66feed42a20edaa98eebb1e
  m_SerializeEntries:
  - m_GUID: 6166b8147efeb9142a9ed41a199cd5e8
    m_Address: weapon_fast_bullet
    m_ReadOnly: 0
    m_SerializedLabels:
    - default
    m_mainAssetType: UnityEngine.GameObject, UnityEngine.CoreModule, Version=0.0.0.0,
      Culture=neutral, PublicKeyToken=null
    m_MainAsset: {fileID: 4161816506117246252, guid: 6166b8147efeb9142a9ed41a199cd5e8,
      type: 3}
    m_TargetAsset: {fileID: 4161816506117246252, guid: 6166b8147efeb9142a9ed41a199cd5e8,
      type: 3}
  - m_GUID: baf8059e45b23da419dd3f95899798c9
    m_Address: weapon_heavy_bullet
    m_ReadOnly: 0
    m_SerializedLabels:
    - default
    m_mainAssetType: UnityEngine.GameObject, UnityEngine.CoreModule, Version=0.0.0.0,
      Culture=neutral, PublicKeyToken=null
    m_MainAsset: {fileID: 2336478503980505116, guid: baf8059e45b23da419dd3f95899798c9,
      type: 3}
    m_TargetAsset: {fileID: 2336478503980505116, guid: baf8059e45b23da419dd3f95899798c9,
      type: 3}
  m_ReadOnly: 0
  m_Settings: {fileID: 11400000, guid: e50c3dd002cbc9d4298db25e744fc0b0, type: 2}
  m_SchemaSet:
    m_Schemas:
    - {fileID: 11400000, guid: f07ef848d12891d45ae5d093b09a0f5b, type: 2}
    - {fileID: 11400000, guid: b1a652acf0bea0a45a63cdb5b3a30ecd, type: 2}
