%YAML 1.1
%TAG !u! tag:unity3d.com,2011:
--- !u!114 &11400000
MonoBehaviour:
  m_ObjectHideFlags: 0
  m_CorrespondingSourceObject: {fileID: 0}
  m_PrefabInstance: {fileID: 0}
  m_PrefabAsset: {fileID: 0}
  m_GameObject: {fileID: 0}
  m_Enabled: 1
  m_EditorHideFlags: 0
  m_Script: {fileID: 11500000, guid: 3295eb555c6840b6a5e4344178ae196d, type: 3}
  m_Name: weapon_fast
  m_EditorClassIdentifier: 
  Characteristics:
    WeaponTypeName: weapon_fast
    Damage: 10
    DamageRadius: 0.3
    Frequency: 0.5
    BulletSpeed: 10
